X: 1
T: The High
R: jig
C: 11 Feb
O: Day 42
M: 6/8
L: 1/8
K:Gdor
|:a|bag agf|def g2a|bag a2g|fdc d2a|
bag agf|def gfc|dcB ABc|dBA G2:|
|:A|B2B c^Bc|dcg fdc|BGA B2c|dc^B cdc|
BGA B2c|dgg def|dcB ABc|dBA G2:|
