X: 1
T: The Kilfrush
R: reel
C: 19 Oct
O: Day 292
M: 4/4
L: 1/8
K: Dmaj
|:dB|AF F2 AFdB|AF F2 GE E2|AF F2 AFDF|EDEF D2 dB|
AF F2 AFdB|AF F2 GE E2|AF F2 AFDF|EDEF D2:|
|:AB|defg afdf|edfd eB B2|defg afdf|edef d2 AB|
defg afdf|edfd eB B2|defg a2 ag|fgef d2:|
