X: 1
T: The Fort Of The Fairy Queen
R: reel
C: 3 Sept
O: Day 246
M: 4/4
L: 1/8
K: Gmaj
d2g2d3c|B2AGA2D2|Bcd2cde2|d2cBA2D2|
g4d3c|B2AGA2D2|Bc dB cB AG|1 GF- FG G4:|2 GF- FG G3g/a/||
b2b2b2ag|a2f2f2ef|g2e2a3g|f>e d^c d4|
e2ge ce ce|d2gd Bd Bd|ce ac Bd gd|cB Ad f3g/a/|
g4d3c|B2AGA2D2|Bc dB cB AG|1 GF- FG G3g/a/:|2 GF- FG G4||
