%!PS-Adobe-3.0 EPSF-3.0
%%Creator: Brian Wright
%%BoundingBox: 0 0 540 300
%%LanguageLevel: 2
%%Pages: 1
%%DocumentData: Clean7Bit

%%BeginSetup
/!{bind def}bind def
/T/translate load def
/M/moveto load def
/RM/rmoveto load def
/RL/rlineto load def
/SLW/setlinewidth load def
/dlw{0.4 SLW}!
/bm{M 3 copy RL neg 0 exch RL neg exch neg exch RL 0 exch RL fill}!
/bar{M 0.5 SLW 0 exch RL stroke}!
/sharp{M gsave 0.5 SLW 0 -8 RM 0 15 RL 2.5 -13 RM 0 15 RL stroke
grestore gsave -2 -4.5 RM 6.5 2 RL 0 2 RL -6.5 -2 RL closepath fill
grestore -2 0.5 RM 6.5 2 RL 0 2 RL -6.5 -2 RL closepath fill}!
/su{dlw x y M 3.5 1 RM 1 sub 0 exch RL stroke}!
/sd{dlw x y M -3.5 -1 RM 1 add 0 exch RL stroke}!
/ellipse { % draw an ellipse
  30 rotate 5.5 3.5 scale
  newpath 0 0 3.8 0 360 arc closepath fill
} !
/hd { % black note head
  /x 2 index def /y 1 index def
  gsave T .2 dup scale ellipse grestore
} !
%%EndSetup

/Times-Roman findfont
36 scalefont
setfont
newpath
127 480 moveto
(Scahill 2023 Reel Book) true charpath
0.3 setlinewidth
stroke

dlw 260 167 409 M 0 RL 260 167 415 M 0 RL 260 167 421 M 0 RL 260 167 427 M 0 RL 260 167 433 M 0 RL stroke
24 247 409 bar
24 387 409 bar
185 424 hd -20 sd
3.2 16.2 -3 215.4 442 bm
212 421 hd 21 su
228 415 hd 24 su

3.2 45.2 -3 263.4 440 bm
260 418 hd 22 su
275 421 hd 18 su
290 418 hd 20 su
305 415 hd 22 su

3.2 15.2 -2 323.4 433 bm
320 409 hd 24 su
335 403 hd 28 su

3.2 28.2 2.8 353.4 431 bm
350 406 hd 25 su
360 409 hd 23 su
368 412 sharp
378 412 hd 21.8 su

405 415 hd 20 su

%%EOF

