X: 1
T: Lucky In Love
R: reel
C: 14 Feb
O: Day 45
M: 4/4
L: 1/8
K: Gmaj
|:~g3 d BGGA|BGdB BAAB|~g3 d BGAB |1 cBAc BG G2 :|2 ceAc BGGA ||
|:BGdG eGdG|BGdB BA~A2 |1 BGdG eGdG|BdAc BGGA :|2 GABd eaag|fdef gabg |]
