X: 1
T: The Cuil Aodha
R: slide
C: 28 Aug
O: Day 240
M: 12/8
L: 1/8
K: Dmaj
|:Bcd Bcd c2A A2A|Bcd e2f g3 efg|
a2f gfe f2d A2A|Bcd e2c d3 d3:|
|:a2f gfe f2d A2A|Bcd e2f g3 efg|
a2f gfe f2d A2A|Bcd e2c d3 d3:|
